[
	
	{
    "name": "Synchronized",
    "id": "com.isoft.camunda.SyncedExternalTask",
    "appliesTo": [
      "bpmn:ServiceTask"
    ],
    "properties": [
      {
        "label": "Synchronized",
        "type": "String",
        "editable": false,
        "value": "synchronizedTask",
        "binding": {
          "type": "property",
          "name": "camunda:topic"
        }
      },
{
        "label": "Type",
        "type": "String",
        "editable": false,
        "value": "external",
        "binding": {
          "type": "property",
          "name": "camunda:type"
        }
      },

{
        "label": "Issue Tracker",
        "type": "Dropdown",
        "value": "1",
        "choices": [
          { "name": "Redmine", "value": "1" },
          { "name": "Jira", "value": "2", "disabled":"disabled" }
        ],
        "binding": {
          "type": "camunda:inputParameter",
          "name": "trackerId"
        },
    "entriesVisible": {
      "_all": true,
      "candidateUsers": false,
      "candidateGroups": false
    }
},
	  {
        "label": "Project id",
        "type": "String",
        "binding": {
          "type": "camunda:inputParameter",
          "name": "preDefinedProjectId"
        }
      },
	  {
        "label": "Assignee id",
        "type": "String",
        "binding": {
          "type": "camunda:inputParameter",
          "name": "preDefinedAssigneeId"
        }
      },
	  {
        "label": "Subject",
        "type": "String",
        "binding": {
          "type": "camunda:inputParameter",
          "name": "preDefinedSubject"
        }
      },
	  {
        "label": "Description",
        "type": "String",
        "binding": {
          "type": "camunda:inputParameter",
          "name": "preDefinedDescription"
        }
      },
	  {
        "label": "Due date",
		"description": "Format:2018-10-25",
        "type": "String",
        "binding": {
          "type": "camunda:inputParameter",
          "name": "preDefinedDueDate"
        }
      }
    ],
    "entriesVisible": {
      "_all": true,
      "delegate": false,
      "implementation": false
    }
  }
]
